module AEgerman/nats-test

go 1.18

require github.com/nats-io/nats.go v1.14.0

require (
	github.com/golang/protobuf v1.5.2 // indirect
	github.com/nats-io/nats-server/v2 v2.8.0 // indirect
	github.com/nats-io/nkeys v0.3.0 // indirect
	github.com/nats-io/nuid v1.0.1 // indirect
	golang.org/x/crypto v0.0.0-20220112180741-5e0467b6c7ce // indirect
	google.golang.org/protobuf v1.28.0 // indirect
)
